{
com.badlogic.gdx.graphics.Color: {
	green: { g: 1, a: 1 },
	light_grey: { r: 0.8, g: 0.8, b: 0.8, a: 1 },
	white: { r: 1, g: 1, b: 1, a: 1 },
	red: { r: 1, a: 1 },
	grey: { r: 0.7, g: 0.7, b: 0.7, a: 1 },
	Flamingo: { r: 1, g: 0.2, b: 1, a: 1 },
	black: { a: 1 }
},
com.badlogic.gdx.graphics.g2d.BitmapFont: {
	default: { file: arial-black_16.fnt },
    arial-32: { file: arial-black_32.fnt }
},
com.badlogic.gdx.scenes.scene2d.ui.ProgressBar$ProgressBarStyle: {
	default-horizontal: { background: progressbar-bg, knobBefore: progressbar-knob }
},
com.kotcrab.vis.ui.widget.VisTextButton$VisTextButtonStyle: {
	default: {
		font: default,
		fontColor: { a: 1, b: 1, g: 1, r: 1 },
		downFontColor: { a: 1, b: 1, g: 0.2, r: 1 },
		disabledFontColor: { a: 1, b: 0.8, g: 0.8, r: 0.8 },
		up: button-up,
		down: button-down,
		over: button-over
	}
},
com.badlogic.gdx.scenes.scene2d.ui.ImageButton$ImageButtonStyle: {
	default: {
		up: button-up,
		down: button-down,
		over: button-over
	}
},
com.badlogic.gdx.scenes.scene2d.ui.Button$ButtonStyle: {
	default: {
      up: button-up,
      down: button-down,
      over: button-over
    }
},
com.badlogic.gdx.scenes.scene2d.ui.ScrollPane$ScrollPaneStyle: {
	default: {
		background: bg1,
		hScroll: scrollbar-horizontal,
		hScrollKnob: scrollbar-horizontal-knob,
		vScroll: scrollbar-vertical,
		vScrollKnob: scrollbar-vertical-knob
	}
},
com.badlogic.gdx.scenes.scene2d.ui.Label$LabelStyle: {
	default: {
		font: default,
		fontColor: { a: 1, b: 1, g: 1, r: 1 }
	},
	title: {
		font: arial-32,
		fontColor: { a: 1, b: 1, g: 1, r: 1 },
		background: bg1
	}
}
}